{
  "count": 212,
  "next": "http://convoytrucking.net/api/vehicles/?page=2",
  "previous": null,
  "results": [
    {
      "modelid": 445,
      "image_file_name": "vehicle_445.jpg",
      "name": "Admiral",
      "price": 90000,
      "colors": "34 34 35 35 37 37 39 39 41 41 43 43 45 45 47 47 -1 -1 ",
      "top_speed": 165,
      "flags": 1
    },
    {
      "modelid": 602,
      "image_file_name": "vehicle_602.jpg",
      "name": "Alpha",
      "price": 150000,
      "colors": "58 1 69 1 75 77 18 1 32 1 45 45 13 1 34 1 -1 -1 ",
      "top_speed": 176,
      "flags": 1
    },
    {
      "modelid": 416,
      "image_file_name": "vehicle_416.jpg",
      "name": "Ambulance",
      "price": 1500000,
      "colors": "1 3 -1 -1 -1 -1 -1 -1 -1 -1 -1 -1 -1 -1 -1 -1 -1 -1 ",
      "top_speed": 145,
      "flags": 1
    },
    {
      "modelid": 592,
      "image_file_name": "vehicle_592.jpg",
      "name": "Andromada",
      "price": 1200000,
      "colors": "1 1 -1 -1 -1 -1 -1 -1 -1 -1 -1 -1 -1 -1 -1 -1 -1 -1 ",
      "top_speed": 0,
      "flags": 2051
    },
    {
      "modelid": 435,
      "image_file_name": "vehicle_435.jpg",
      "name": "Artic trailer 1",
      "price": 95000,
      "colors": "1 1 -1 -1 -1 -1 -1 -1 -1 -1 -1 -1 -1 -1 -1 -1 -1 -1 ",
      "top_speed": 0,
      "flags": 272
    },
    {
      "modelid": 591,
      "image_file_name": "vehicle_591.jpg",
      "name": "Artic trailer 3",
      "price": 80000,
      "colors": "1 1 -1 -1 -1 -1 -1 -1 -1 -1 -1 -1 -1 -1 -1 -1 -1 -1 ",
      "top_speed": 0,
      "flags": 272
    },
    {
      "modelid": 577,
      "image_file_name": "vehicle_577.jpg",
      "name": "AT 400",
      "price": 1800000,
      "colors": "1 3 8 7 8 10 8 16 23 31 40 44 -1 -1 -1 -1 -1 -1 ",
      "top_speed": 0,
      "flags": 2051
    },
    {
      "modelid": 606,
      "image_file_name": "vehicle_606.jpg",
      "name": "Bag box A",
      "price": 700000,
      "colors": "-1 -1 -1 -1 -1 -1 -1 -1 -1 -1 -1 -1 -1 -1 -1 -1 -1 -1",
      "top_speed": 0,
      "flags": 16
    },
    {
      "modelid": 607,
      "image_file_name": "vehicle_607.jpg",
      "name": "Bag box B",
      "price": 700000,
      "colors": "-1 -1 -1 -1 -1 -1 -1 -1 -1 -1 -1 -1 -1 -1 -1 -1 -1 -1",
      "top_speed": 0,
      "flags": 16
    },
    {
      "modelid": 485,
      "image_file_name": "vehicle_485.jpg",
      "name": "Baggage",
      "price": 1000000,
      "colors": "1 73 1 74 1 75 1 76 1 77 1 78 1 79 -1 -1 -1 -1 ",
      "top_speed": 61,
      "flags": 1025
    },
    {
      "modelid": 568,
      "image_file_name": "vehicle_568.jpg",
      "name": "Bandito",
      "price": 2000000,
      "colors": "2 39 9 39 17 1 21 1 33 0 37 0 41 29 56 29 -1 -1 ",
      "top_speed": 132,
      "flags": 1
    },
    {
      "modelid": 429,
      "image_file_name": "vehicle_429.jpg",
      "name": "Banshee",
      "price": 390000,
      "colors": "12 12 13 13 14 14 1 2 2 1 1 3 3 1 10 10 -1 -1 ",
      "top_speed": 252,
      "flags": 1
    },
    {
      "modelid": 433,
      "image_file_name": "vehicle_433.jpg",
      "name": "Barracks",
      "price": 200000,
      "colors": "43 0 -1 -1 -1 -1 -1 -1 -1 -1 -1 -1 -1 -1 -1 -1 -1 -1 ",
      "top_speed": 75,
      "flags": 257
    },
    {
      "modelid": 511,
      "image_file_name": "vehicle_511.jpg",
      "name": "Beagle",
      "price": 300000,
      "colors": "3 90 4 90 7 68 8 66 12 60 27 97 34 51 37 51 -1 -1 ",
      "top_speed": 0,
      "flags": 2051
    },
    {
      "modelid": 499,
      "image_file_name": "vehicle_499.jpg",
      "name": "Benson",
      "price": 120000,
      "colors": "109 25 109 32 112 32 10 32 30 44 32 52 84 66 84 69 -1 -1 ",
      "top_speed": 93,
      "flags": 1
    },
    {
      "modelid": 581,
      "image_file_name": "vehicle_581.jpg",
      "name": "BF 400",
      "price": 90000,
      "colors": "54 1 58 1 66 1 72 1 75 1 87 1 101 1 36 1 -1 -1 ",
      "top_speed": 141,
      "flags": 129
    },
    {
      "modelid": 424,
      "image_file_name": "vehicle_424.jpg",
      "name": "BF Injection",
      "price": 1700000,
      "colors": "1 0 2 2 3 2 3 6 6 16 15 30 24 53 35 61 -1 -1 ",
      "top_speed": 113,
      "flags": 1
    },
    {
      "modelid": 509,
      "image_file_name": "vehicle_509.jpg",
      "name": "Bike",
      "price": 2000000,
      "colors": "7 1 74 1 61 1 16 1 25 1 30 1 36 1 53 1 -1 -1 ",
      "top_speed": 0,
      "flags": 32
    },
    {
      "modelid": 536,
      "image_file_name": "vehicle_536.jpg",
      "name": "Blade",
      "price": 150000,
      "colors": "9 1 12 1 26 96 30 96 32 1 37 1 57 96 71 96 -1 -1 ",
      "top_speed": 185,
      "flags": 1
    },
    {
      "modelid": 496,
      "image_file_name": "vehicle_496.jpg",
      "name": "Blista Compact",
      "price": 85000,
      "colors": "74 72 66 72 53 56 37 19 22 22 20 20 9 14 0 0 -1 -1 ",
      "top_speed": 163,
      "flags": 1
    },
    {
      "modelid": 504,
      "image_file_name": "vehicle_504.jpg",
      "name": "Bloodring banger",
      "price": 2000000,
      "colors": "51 39 57 38 45 29 34 9 65 9 14 1 12 9 26 1 -1 -1 ",
      "top_speed": 184,
      "flags": 1
    },
    {
      "modelid": 481,
      "image_file_name": "vehicle_481.jpg",
      "name": "BMX",
      "price": 2000000,
      "colors": "1 1 3 3 6 6 46 46 65 9 14 1 12 9 26 1 -1 -1 ",
      "top_speed": 0,
      "flags": 32
    },
    {
      "modelid": 422,
      "image_file_name": "vehicle_422.jpg",
      "name": "Bobcat",
      "price": 100000,
      "colors": "96 25 97 25 101 25 111 31 113 36 83 57 67 59 -1 -1 -1 -1 ",
      "top_speed": 121,
      "flags": 1
    },
    {
      "modelid": 609,
      "image_file_name": "vehicle_609.jpg",
      "name": "Boxburg",
      "price": 100000,
      "colors": "36 36 -1 -1 -1 -1 -1 -1 -1 -1 -1 -1 -1 -1 -1 -1 -1 -1 ",
      "top_speed": 72,
      "flags": 1
    },
    {
      "modelid": 498,
      "image_file_name": "vehicle_498.jpg",
      "name": "Boxville",
      "price": 100000,
      "colors": "11 123 13 120 20 117 24 112 27 107 36 105 37 107 43 93 -1 -1 ",
      "top_speed": 72,
      "flags": 1
    },
    {
      "modelid": 401,
      "image_file_name": "vehicle_401.jpg",
      "name": "Bravura",
      "price": 90000,
      "colors": "41 41 47 47 52 52 66 66 74 74 87 87 113 113 -1 -1 -1 -1 ",
      "top_speed": 133,
      "flags": 1
    },
    {
      "modelid": 575,
      "image_file_name": "vehicle_575.jpg",
      "name": "Broadway",
      "price": 117000,
      "colors": "12 1 19 96 31 64 25 96 38 1 51 96 57 1 66 96 -1 -1 ",
      "top_speed": 154,
      "flags": 1
    },
    {
      "modelid": 538,
      "image_file_name": "vehicle_538.jpg",
      "name": "Brownstreak",
      "price": 2000000,
      "colors": "1 1 -1 -1 -1 -1 -1 -1 -1 -1 -1 -1 -1 -1 -1 -1 -1 -1 ",
      "top_speed": 0,
      "flags": 8
    },
    {
      "modelid": 518,
      "image_file_name": "vehicle_518.jpg",
      "name": "Buccaneer",
      "price": 170000,
      "colors": "2 39 9 39 17 1 21 1 33 0 37 0 41 29 56 29 -1 -1 ",
      "top_speed": 167,
      "flags": 1
    },
    {
      "modelid": 402,
      "image_file_name": "vehicle_402.jpg",
      "name": "Buffalo",
      "price": 230000,
      "colors": "10 10 13 13 22 22 30 30 39 39 90 90 98 98 110 110 -1 -1 ",
      "top_speed": 215,
      "flags": 1
    },
    {
      "modelid": 541,
      "image_file_name": "vehicle_541.jpg",
      "name": "Bullet",
      "price": 380000,
      "colors": "51 1 58 8 60 1 68 8 2 1 13 8 22 1 36 8 -1 -1 ",
      "top_speed": 254,
      "flags": 1
    },
    {
      "modelid": 482,
      "image_file_name": "vehicle_482.jpg",
      "name": "Burrito",
      "price": 110000,
      "colors": "41 41 48 48 52 52 64 64 71 71 85 85 10 10 62 62 -1 -1 ",
      "top_speed": 151,
      "flags": 1
    },
    {
      "modelid": 431,
      "image_file_name": "vehicle_431.jpg",
      "name": "Bus",
      "price": 240000,
      "colors": "71 59 75 59 92 72 47 74 55 83 59 83 71 87 82 87 -1 -1 ",
      "top_speed": 105,
      "flags": 257
    },
    {
      "modelid": 438,
      "image_file_name": "vehicle_438.jpg",
      "name": "Cabbie",
      "price": 150000,
      "colors": "6 76 -1 -1 -1 -1 -1 -1 -1 -1 -1 -1 -1 -1 -1 -1 -1 -1 ",
      "top_speed": 125,
      "flags": 1
    },
    {
      "modelid": 457,
      "image_file_name": "vehicle_457.jpg",
      "name": "Caddy",
      "price": 1000000,
      "colors": "58 1 2 1 63 1 18 1 32 1 45 1 13 1 34 1 -1 -1 ",
      "top_speed": 56,
      "flags": 1025
    },
    {
      "modelid": 527,
      "image_file_name": "vehicle_527.jpg",
      "name": "Cadrona",
      "price": 97000,
      "colors": "52 1 53 1 66 1 75 1 76 1 81 1 95 1 109 1 -1 -1 ",
      "top_speed": 137,
      "flags": 1
    },
    {
      "modelid": 483,
      "image_file_name": "vehicle_483.jpg",
      "name": "Camper",
      "price": 130000,
      "colors": "1 31 1 31 1 20 1 5 0 6 3 6 16 0 17 0 -1 -1 ",
      "top_speed": 93,
      "flags": 1
    },
    {
      "modelid": 548,
      "image_file_name": "vehicle_548.jpg",
      "name": "Cargobob",
      "price": 400000,
      "colors": "1 1 -1 -1 -1 -1 -1 -1 -1 -1 -1 -1 -1 -1 -1 -1 -1 -1 ",
      "top_speed": 0,
      "flags": 4099
    },
    {
      "modelid": 524,
      "image_file_name": "vehicle_524.jpg",
      "name": "Cement truck",
      "price": 175000,
      "colors": "60 24 61 27 65 31 61 61 81 35 62 61 83 66 83 64 -1 -1 ",
      "top_speed": 105,
      "flags": 257
    },
    {
      "modelid": 415,
      "image_file_name": "vehicle_415.jpg",
      "name": "Cheetah",
      "price": 380000,
      "colors": "20 1 25 1 36 1 40 1 62 1 75 1 92 1 0 1 -1 -1 ",
      "top_speed": 229,
      "flags": 1
    },
    {
      "modelid": 542,
      "image_file_name": "vehicle_542.jpg",
      "name": "Clover",
      "price": 130000,
      "colors": "13 118 24 118 31 93 32 92 45 92 113 92 119 113 122 113 -1 -1 ",
      "top_speed": 168,
      "flags": 1
    },
    {
      "modelid": 589,
      "image_file_name": "vehicle_589.jpg",
      "name": "Club",
      "price": 100000,
      "colors": "37 37 31 31 23 23 22 22 7 7 124 124 114 114 112 112 -1 -1 ",
      "top_speed": 164,
      "flags": 1
    },
    {
      "modelid": 437,
      "image_file_name": "vehicle_437.jpg",
      "name": "Coach",
      "price": 260000,
      "colors": "54 7 79 7 87 7 95 16 98 20 105 20 123 20 125 21 -1 -1 ",
      "top_speed": 154,
      "flags": 257
    },
    {
      "modelid": 472,
      "image_file_name": "vehicle_472.jpg",
      "name": "Coastguard",
      "price": 270000,
      "colors": "56 15 56 53 -1 -1 -1 -1 -1 -1 -1 -1 -1 -1 -1 -1 -1 -1 ",
      "top_speed": 0,
      "flags": 5
    },
    {
      "modelid": 532,
      "image_file_name": "vehicle_532.jpg",
      "name": "Combine",
      "price": 5000000,
      "colors": "-1 -1 -1 -1 -1 -1 -1 -1 -1 -1 -1 -1 -1 -1 -1 -1 -1 -1",
      "top_speed": 75,
      "flags": 1025
    },
    {
      "modelid": 480,
      "image_file_name": "vehicle_480.jpg",
      "name": "Comet",
      "price": 400000,
      "colors": "73 45 12 12 2 2 6 6 4 4 46 46 53 53 -1 -1 -1 -1 ",
      "top_speed": 210,
      "flags": 1
    },
    {
      "modelid": 596,
      "image_file_name": "vehicle_596.jpg",
      "name": "Cop car LS",
      "price": 200000,
      "colors": "0 1 -1 -1 -1 -1 -1 -1 -1 -1 -1 -1 -1 -1 -1 -1 -1 -1 ",
      "top_speed": 190,
      "flags": 8193
    },
    {
      "modelid": 598,
      "image_file_name": "vehicle_598.jpg",
      "name": "Cop car LV",
      "price": 200000,
      "colors": "0 1 -1 -1 -1 -1 -1 -1 -1 -1 -1 -1 -1 -1 -1 -1 -1 -1 ",
      "top_speed": 190,
      "flags": 8193
    },
    {
      "modelid": 597,
      "image_file_name": "vehicle_597.jpg",
      "name": "Cop car SF",
      "price": 200000,
      "colors": "0 1 -1 -1 -1 -1 -1 -1 -1 -1 -1 -1 -1 -1 -1 -1 -1 -1 ",
      "top_speed": 190,
      "flags": 8193
    },
    {
      "modelid": 512,
      "image_file_name": "vehicle_512.jpg",
      "name": "Cropduster",
      "price": 1000000,
      "colors": "17 39 15 123 32 112 45 88 52 71 57 67 61 96 96 96 -1 -1 ",
      "top_speed": 0,
      "flags": 2051
    },
    {
      "modelid": 578,
      "image_file_name": "vehicle_578.jpg",
      "name": "DFT 30",
      "price": 165000,
      "colors": "1 1 -1 -1 -1 -1 -1 -1 -1 -1 -1 -1 -1 -1 -1 -1 -1 -1 ",
      "top_speed": 105,
      "flags": 257
    },
    {
      "modelid": 473,
      "image_file_name": "vehicle_473.jpg",
      "name": "Dinghy",
      "price": 2000000,
      "colors": "56 15 56 53 -1 -1 -1 -1 -1 -1 -1 -1 -1 -1 -1 -1 -1 -1 ",
      "top_speed": 0,
      "flags": 5
    },
    {
      "modelid": 593,
      "image_file_name": "vehicle_593.jpg",
      "name": "Dodo",
      "price": 280000,
      "colors": "51 1 58 8 60 1 68 8 2 1 13 8 22 1 36 8 -1 -1 ",
      "top_speed": 0,
      "flags": 2051
    },
    {
      "modelid": 486,
      "image_file_name": "vehicle_486.jpg",
      "name": "Dozer",
      "price": 500000,
      "colors": "1 1 -1 -1 -1 -1 -1 -1 -1 -1 -1 -1 -1 -1 -1 -1 -1 -1 ",
      "top_speed": 26,
      "flags": 1025
    },
    {
      "modelid": 406,
      "image_file_name": "vehicle_406.jpg",
      "name": "Dumper",
      "price": 500000,
      "colors": "1 1 -1 -1 -1 -1 -1 -1 -1 -1 -1 -1 -1 -1 -1 -1 -1 -1 ",
      "top_speed": 75,
      "flags": 257
    },
    {
      "modelid": 450,
      "image_file_name": "vehicle_450.jpg",
      "name": "Dumper trailer",
      "price": 80000,
      "colors": "1 1 -1 -1 -1 -1 -1 -1 -1 -1 -1 -1 -1 -1 -1 -1 -1 -1 ",
      "top_speed": 0,
      "flags": 272
    },
    {
      "modelid": 573,
      "image_file_name": "vehicle_573.jpg",
      "name": "Duneride",
      "price": 500000,
      "colors": "91 38 115 43 85 6 79 7 78 8 77 18 79 18 86 24 -1 -1 ",
      "top_speed": 75,
      "flags": 257
    },
    {
      "modelid": 507,
      "image_file_name": "vehicle_507.jpg",
      "name": "Elegant",
      "price": 120000,
      "colors": "37 37 42 42 53 53 62 62 7 7 10 10 11 11 15 15 -1 -1 ",
      "top_speed": 170,
      "flags": 1
    },
    {
      "modelid": 562,
      "image_file_name": "vehicle_562.jpg",
      "name": "Elegy",
      "price": 98000,
      "colors": "36 1 35 1 17 1 11 1 116 1 113 1 101 1 92 1 -1 -1 ",
      "top_speed": 195,
      "flags": 1
    },
    {
      "modelid": 585,
      "image_file_name": "vehicle_585.jpg",
      "name": "Emperor",
      "price": 150000,
      "colors": "37 37 42 42 53 53 62 62 7 7 10 10 11 11 15 15 -1 -1 ",
      "top_speed": 145,
      "flags": 1
    },
    {
      "modelid": 427,
      "image_file_name": "vehicle_427.jpg",
      "name": "Enforcer",
      "price": 270000,
      "colors": "0 1 -1 -1 -1 -1 -1 -1 -1 -1 -1 -1 -1 -1 -1 -1 -1 -1 ",
      "top_speed": 169,
      "flags": 8193
    },
    {
      "modelid": 419,
      "image_file_name": "vehicle_419.jpg",
      "name": "Esperanto",
      "price": 160000,
      "colors": "45 75 47 76 33 75 13 76 54 75 69 76 59 75 87 76 -1 -1 ",
      "top_speed": 137,
      "flags": 1
    },
    {
      "modelid": 587,
      "image_file_name": "vehicle_587.jpg",
      "name": "Euros",
      "price": 220000,
      "colors": "36 1 40 1 43 1 53 1 72 1 75 1 95 1 101 1 -1 -1 ",
      "top_speed": 167,
      "flags": 1
    },
    {
      "modelid": 462,
      "image_file_name": "vehicle_462.jpg",
      "name": "Faggio",
      "price": 55000,
      "colors": "12 12 13 13 14 14 1 2 2 1 1 3 3 1 10 10 -1 -1 ",
      "top_speed": 75,
      "flags": 129
    },
    {
      "modelid": 610,
      "image_file_name": "vehicle_610.jpg",
      "name": "Farm trailer",
      "price": 700000,
      "colors": "-1 -1 -1 -1 -1 -1 -1 -1 -1 -1 -1 -1 -1 -1 -1 -1 -1 -1",
      "top_speed": 0,
      "flags": 16
    },
    {
      "modelid": 490,
      "image_file_name": "vehicle_490.jpg",
      "name": "FBI Rancher",
      "price": 300000,
      "colors": "0 0 -1 -1 -1 -1 -1 -1 -1 -1 -1 -1 -1 -1 -1 -1 -1 -1 ",
      "top_speed": 152,
      "flags": 8193
    },
    {
      "modelid": 528,
      "image_file_name": "vehicle_528.jpg",
      "name": "FBI Truck",
      "price": 800000,
      "colors": "-1 -1 -1 -1 -1 -1 -1 -1 -1 -1 -1 -1 -1 -1 -1 -1 -1 -1",
      "top_speed": 192,
      "flags": 8193
    },
    {
      "modelid": 521,
      "image_file_name": "vehicle_521.jpg",
      "name": "FCR 900",
      "price": 95000,
      "colors": "74 74 75 13 87 118 92 3 115 118 25 118 36 0 118 118 -1 -1 ",
      "top_speed": 160,
      "flags": 129
    },
    {
      "modelid": 533,
      "image_file_name": "vehicle_533.jpg",
      "name": "Feltzer",
      "price": 120000,
      "colors": "73 1 74 1 75 1 77 1 79 1 83 1 84 1 91 1 -1 -1 ",
      "top_speed": 172,
      "flags": 1
    },
    {
      "modelid": 407,
      "image_file_name": "vehicle_407.jpg",
      "name": "Firetruck",
      "price": 3500000,
      "colors": "3 1 -1 -1 -1 -1 -1 -1 -1 -1 -1 -1 -1 -1 -1 -1 -1 -1 ",
      "top_speed": 135,
      "flags": 257
    },
    {
      "modelid": 544,
      "image_file_name": "vehicle_544.jpg",
      "name": "Firetruck LS",
      "price": 3000000,
      "colors": "3 1 -1 -1 -1 -1 -1 -1 -1 -1 -1 -1 -1 -1 -1 -1 -1 -1 ",
      "top_speed": 136,
      "flags": 1
    },
    {
      "modelid": 565,
      "image_file_name": "vehicle_565.jpg",
      "name": "Flash",
      "price": 114000,
      "colors": "37 37 42 42 53 53 62 62 7 7 10 10 11 11 15 15 -1 -1 ",
      "top_speed": 168,
      "flags": 1
    },
    {
      "modelid": 455,
      "image_file_name": "vehicle_455.jpg",
      "name": "Flatbed",
      "price": 180000,
      "colors": "84 15 84 58 84 31 32 74 43 31 1 31 77 31 32 74 -1 -1 ",
      "top_speed": 154,
      "flags": 257
    },
    {
      "modelid": 530,
      "image_file_name": "vehicle_530.jpg",
      "name": "Fork lift",
      "price": 2000000,
      "colors": "110 1 111 1 112 1 114 1 119 1 122 1 4 1 13 1 -1 -1 ",
      "top_speed": 23,
      "flags": 1025
    },
    {
      "modelid": 526,
      "image_file_name": "vehicle_526.jpg",
      "name": "Fortune",
      "price": 90000,
      "colors": "2 39 9 39 17 1 21 1 33 0 37 0 41 29 56 29 -1 -1 ",
      "top_speed": 154,
      "flags": 1
    },
    {
      "modelid": 463,
      "image_file_name": "vehicle_463.jpg",
      "name": "Freeway",
      "price": 85000,
      "colors": "79 79 84 84 7 7 11 11 19 19 22 22 36 36 53 53 -1 -1 ",
      "top_speed": 127,
      "flags": 129
    },
    {
      "modelid": 537,
      "image_file_name": "vehicle_537.jpg",
      "name": "Freight",
      "price": 2000000,
      "colors": "1 1 -1 -1 -1 -1 -1 -1 -1 -1 -1 -1 -1 -1 -1 -1 -1 -1 ",
      "top_speed": 0,
      "flags": 8
    },
    {
      "modelid": 590,
      "image_file_name": "vehicle_590.jpg",
      "name": "Freight box",
      "price": 2000000,
      "colors": "-1 -1 -1 -1 -1 -1 -1 -1 -1 -1 -1 -1 -1 -1 -1 -1 -1 -1",
      "top_speed": 0,
      "flags": 8
    },
    {
      "modelid": 569,
      "image_file_name": "vehicle_569.jpg",
      "name": "Freight flat",
      "price": 2000000,
      "colors": "-1 -1 -1 -1 -1 -1 -1 -1 -1 -1 -1 -1 -1 -1 -1 -1 -1 -1",
      "top_speed": 0,
      "flags": 8
    },
    {
      "modelid": 570,
      "image_file_name": "vehicle_570.jpg",
      "name": "Freight train",
      "price": 2000000,
      "colors": "1 1 -1 -1 -1 -1 -1 -1 -1 -1 -1 -1 -1 -1 -1 -1 -1 -1 ",
      "top_speed": 0,
      "flags": 8
    },
    {
      "modelid": 466,
      "image_file_name": "vehicle_466.jpg",
      "name": "Glendale",
      "price": 110000,
      "colors": "67 76 68 76 78 76 2 76 16 76 18 76 25 76 45 88 -1 -1 ",
      "top_speed": 134,
      "flags": 1
    },
    {
      "modelid": 604,
      "image_file_name": "vehicle_604.jpg",
      "name": "Glendale Damaged",
      "price": 2000000,
      "colors": "67 76 68 76 78 76 2 76 16 76 18 76 25 76 45 88 -1 -1 ",
      "top_speed": 133,
      "flags": 1
    },
    {
      "modelid": 492,
      "image_file_name": "vehicle_492.jpg",
      "name": "Greenwood",
      "price": 120000,
      "colors": "30 26 77 26 81 27 24 55 28 56 49 59 52 69 71 107 -1 -1 ",
      "top_speed": 122,
      "flags": 1
    },
    {
      "modelid": 474,
      "image_file_name": "vehicle_474.jpg",
      "name": "Hermes",
      "price": 105000,
      "colors": "97 1 81 1 105 1 110 1 91 1 74 1 84 1 83 1 -1 -1 ",
      "top_speed": 137,
      "flags": 1
    },
    {
      "modelid": 588,
      "image_file_name": "vehicle_588.jpg",
      "name": "Hotdog",
      "price": 1000000,
      "colors": "1 1 -1 -1 -1 -1 -1 -1 -1 -1 -1 -1 -1 -1 -1 -1 -1 -1 ",
      "top_speed": 71,
      "flags": 1025
    },
    {
      "modelid": 434,
      "image_file_name": "vehicle_434.jpg",
      "name": "Hotknife",
      "price": 410000,
      "colors": "1 1 12 12 2 2 6 6 4 4 46 46 53 53 -1 -1 -1 -1 ",
      "top_speed": 173,
      "flags": 1
    },
    {
      "modelid": 494,
      "image_file_name": "vehicle_494.jpg",
      "name": "Hotring",
      "price": 2500000,
      "colors": "36 117 36 13 42 30 42 33 54 36 75 79 92 101 98 109 -1 -1 ",
      "top_speed": 285,
      "flags": 1
    },
    {
      "modelid": 502,
      "image_file_name": "vehicle_502.jpg",
      "name": "Hotring A",
      "price": 2500000,
      "colors": "7 94 36 88 51 75 53 75 -1 58 75 67 75 61 79 62 -1 -1 ",
      "top_speed": 285,
      "flags": 1
    },
    {
      "modelid": 503,
      "image_file_name": "vehicle_503.jpg",
      "name": "Hotring B",
      "price": 2500000,
      "colors": "83 66 87 74 87 75 98 83 101 100 103 101 117 116 123 36 -1 -1 ",
      "top_speed": 285,
      "flags": 1
    },
    {
      "modelid": 523,
      "image_file_name": "vehicle_523.jpg",
      "name": "HPV 1000",
      "price": 150000,
      "colors": "-1 -1 -1 -1 -1 -1 -1 -1 -1 -1 -1 -1 -1 -1 -1 -1 -1 -1",
      "top_speed": 130,
      "flags": 8321
    },
    {
      "modelid": 425,
      "image_file_name": "vehicle_425.jpg",
      "name": "Hunter",
      "price": 1337000000,
      "colors": "43 0 -1 -1 -1 -1 -1 -1 -1 -1 -1 -1 -1 -1 -1 -1 -1 -1 ",
      "top_speed": 0,
      "flags": 4099
    },
    {
      "modelid": 579,
      "image_file_name": "vehicle_579.jpg",
      "name": "Huntley",
      "price": 200000,
      "colors": "37 37 42 42 53 53 62 62 7 7 10 10 11 11 15 15 -1 -1 ",
      "top_speed": 153,
      "flags": 1
    },
    {
      "modelid": 545,
      "image_file_name": "vehicle_545.jpg",
      "name": "Hustler",
      "price": 356000,
      "colors": "50 1 47 1 44 96 40 96 39 1 30 1 28 96 9 96 -1 -1 ",
      "top_speed": 134,
      "flags": 1
    },
    {
      "modelid": 520,
      "image_file_name": "vehicle_520.jpg",
      "name": "Hydra",
      "price": 2000000,
      "colors": "-1 -1 -1 -1 -1 -1 -1 -1 -1 -1 -1 -1 -1 -1 -1 -1 -1 -1",
      "top_speed": 0,
      "flags": 2051
    },
    {
      "modelid": 411,
      "image_file_name": "vehicle_411.jpg",
      "name": "Infernus",
      "price": 500000,
      "colors": "12 1 64 1 123 1 116 1 112 1 106 1 80 1 75 1 -1 -1 ",
      "top_speed": 303,
      "flags": 1
    },
    {
      "modelid": 546,
      "image_file_name": "vehicle_546.jpg",
      "name": "Intruder",
      "price": 82000,
      "colors": "62 37 78 38 2 62 3 87 2 78 113 78 119 62 7 78 -1 -1 ",
      "top_speed": 137,
      "flags": 1
    },
    {
      "modelid": 559,
      "image_file_name": "vehicle_559.jpg",
      "name": "Jester",
      "price": 130000,
      "colors": "51 1 58 8 60 1 68 8 2 1 13 8 22 1 36 8 -1 -1 ",
      "top_speed": 195,
      "flags": 1
    },
    {
      "modelid": 493,
      "image_file_name": "vehicle_493.jpg",
      "name": "Jetmax",
      "price": 310000,
      "colors": "36 13 -1 -1 -1 -1 -1 -1 -1 -1 -1 -1 -1 -1 -1 -1 -1 -1 ",
      "top_speed": 0,
      "flags": 5
    },
    {
      "modelid": 508,
      "image_file_name": "vehicle_508.jpg",
      "name": "Journey",
      "price": 175000,
      "colors": "1 1 -1 -1 -1 -1 -1 -1 -1 -1 -1 -1 -1 -1 -1 -1 -1 -1 ",
      "top_speed": 72,
      "flags": 1
    },
    {
      "modelid": 571,
      "image_file_name": "vehicle_571.jpg",
      "name": "Kart",
      "price": 2000000,
      "colors": "2 35 36 2 51 53 91 2 11 22 40 35 -1 -1 -1 -1 -1 -1 ",
      "top_speed": 54,
      "flags": 1025
    }
  ]
}